^D:\Chess\chess\chess\chess.vcxproj
D:\Chess\chess\Release\chess.ipdb
D:\Chess\chess\Release\chess.iobj
^D:\Chess\chess\chess\chess.vcxproj
D:\Chess\chess\Release\chess.ipdb
D:\Chess\chess\Release\chess.iobj
^D:\Chess\chess\chess\chess.vcxproj
D:\Chess\chess\Release\chess.ipdb
D:\Chess\chess\Release\chess.iobj
^D:\Chess\chess\chess\chess.vcxproj
D:\Chess\chess\Release\chess.ipdb
D:\Chess\chess\Release\chess.iobj
^D:\Chess\chess\chess\chess.vcxproj
D:\Chess\chess\Release\chess.ipdb
D:\Chess\chess\Release\chess.iobj
^D:\Chess\chess\chess\chess.vcxproj
D:\Chess\chess\Release\chess.ipdb
D:\Chess\chess\Release\chess.iobj
^D:\Chess\chess\chess\chess.vcxproj
D:\Chess\chess\Release\chess.ipdb
D:\Chess\chess\Release\chess.iobj
^D:\Chess\chess\chess\chess.vcxproj
D:\Chess\chess\Release\chess.ipdb
D:\Chess\chess\Release\chess.iobj
^D:\Chess\chess\chess\chess.vcxproj
D:\Chess\chess\Release\chess.ipdb
D:\Chess\chess\Release\chess.iobj
^D:\Chess\chess\chess\chess.vcxproj
D:\Chess\chess\Release\chess.ipdb
D:\Chess\chess\Release\chess.iobj
^D:\Chess\chess\chess\chess.vcxproj
D:\Chess\chess\Release\chess.ipdb
D:\Chess\chess\Release\chess.iobj
^D:\Chess\chess\chess\chess.vcxproj
D:\Chess\chess\Release\chess.ipdb
D:\Chess\chess\Release\chess.iobj
^D:\Chess\chess\chess\chess.vcxproj
D:\Chess\chess\Release\chess.ipdb
D:\Chess\chess\Release\chess.iobj
^D:\Chess\chess\chess\chess.vcxproj
D:\Chess\chess\Release\chess.ipdb
D:\Chess\chess\Release\chess.iobj
^D:\Chess\chess\chess\chess.vcxproj
D:\Chess\chess\Release\chess.ipdb
D:\Chess\chess\Release\chess.iobj
^D:\Chess\chess\chess\chess.vcxproj
D:\Chess\chess\Release\chess.ipdb
D:\Chess\chess\Release\chess.iobj
^D:\Chess\chess\chess\chess.vcxproj
D:\Chess\chess\Release\chess.ipdb
D:\Chess\chess\Release\chess.iobj
^D:\Chess\chess\chess\chess.vcxproj
D:\Chess\chess\Release\chess.ipdb
D:\Chess\chess\Release\chess.iobj
^D:\Chess\chess\chess\chess.vcxproj
D:\Chess\chess\Release\chess.ipdb
D:\Chess\chess\Release\chess.iobj
^D:\Chess\chess\chess\chess.vcxproj
D:\Chess\chess\Release\chess.ipdb
D:\Chess\chess\Release\chess.iobj
^D:\Chess\chess\chess\chess.vcxproj
D:\Chess\chess\Release\chess.ipdb
D:\Chess\chess\Release\chess.iobj
^D:\Chess\chess\chess\chess.vcxproj
D:\Chess\chess\Release\chess.ipdb
D:\Chess\chess\Release\chess.iobj
^D:\Chess\chess\chess\chess.vcxproj
D:\Chess\chess\Release\chess.ipdb
D:\Chess\chess\Release\chess.iobj
^D:\Chess\chess\chess\chess.vcxproj
D:\Chess\chess\Release\chess.ipdb
D:\Chess\chess\Release\chess.iobj
^D:\Chess\chess\chess\chess.vcxproj
D:\Chess\chess\Release\chess.ipdb
D:\Chess\chess\Release\chess.iobj
^D:\Chess\chess\chess\chess.vcxproj
D:\Chess\chess\Release\chess.ipdb
D:\Chess\chess\Release\chess.iobj
^D:\Chess\chess\chess\chess.vcxproj
D:\Chess\chess\Release\chess.ipdb
D:\Chess\chess\Release\chess.iobj
^D:\Chess\chess\chess\chess.vcxproj
D:\Chess\chess\Release\chess.ipdb
D:\Chess\chess\Release\chess.iobj
^D:\Chess\chess\chess\chess.vcxproj
D:\Chess\chess\Release\chess.ipdb
D:\Chess\chess\Release\chess.iobj
^D:\Chess\chess\chess\chess.vcxproj
D:\Chess\chess\Release\chess.ipdb
D:\Chess\chess\Release\chess.iobj
^D:\Chess\chess\chess\chess.vcxproj
D:\Chess\chess\Release\chess.ipdb
D:\Chess\chess\Release\chess.iobj
^D:\Chess\chess\chess\chess.vcxproj
D:\Chess\chess\Release\chess.ipdb
D:\Chess\chess\Release\chess.iobj
^D:\Chess\chess\chess\chess.vcxproj
D:\Chess\chess\Release\chess.ipdb
D:\Chess\chess\Release\chess.iobj
^D:\Chess\chess\chess\chess.vcxproj
D:\Chess\chess\Release\chess.ipdb
D:\Chess\chess\Release\chess.iobj
^D:\Chess\chess\chess\chess.vcxproj
D:\Chess\chess\Release\chess.ipdb
D:\Chess\chess\Release\chess.iobj
^D:\Chess\chess\chess\chess.vcxproj
D:\Chess\chess\Release\chess.ipdb
D:\Chess\chess\Release\chess.iobj
^D:\Chess\chess\chess\chess.vcxproj
D:\Chess\chess\Release\chess.ipdb
D:\Chess\chess\Release\chess.iobj
^D:\Chess\chess\chess\chess.vcxproj
D:\Chess\chess\Release\chess.ipdb
D:\Chess\chess\Release\chess.iobj
^D:\Chess\chess\chess\chess.vcxproj
D:\Chess\chess\Release\chess.ipdb
D:\Chess\chess\Release\chess.iobj
^D:\Chess\chess\chess\chess.vcxproj
D:\Chess\chess\Release\chess.ipdb
D:\Chess\chess\Release\chess.iobj
^D:\Chess\chess\chess\chess.vcxproj
D:\Chess\chess\Release\chess.ipdb
D:\Chess\chess\Release\chess.iobj
^D:\Chess\chess\chess\chess.vcxproj
D:\Chess\chess\Release\chess.ipdb
D:\Chess\chess\Release\chess.iobj
^D:\Chess\chess\chess\chess.vcxproj
D:\Chess\chess\Release\chess.ipdb
D:\Chess\chess\Release\chess.iobj
^D:\Chess\chess\chess\chess.vcxproj
D:\Chess\chess\Release\chess.ipdb
D:\Chess\chess\Release\chess.iobj
^D:\Chess\chess\chess\chess.vcxproj
D:\Chess\chess\Release\chess.ipdb
D:\Chess\chess\Release\chess.iobj
^D:\Chess\chess\chess\chess.vcxproj
D:\Chess\chess\Release\chess.ipdb
D:\Chess\chess\Release\chess.iobj
^D:\Chess\chess\chess\chess.vcxproj
D:\Chess\chess\Release\chess.ipdb
D:\Chess\chess\Release\chess.iobj
^D:\Chess\chess\chess\chess.vcxproj
D:\Chess\chess\Release\chess.ipdb
D:\Chess\chess\Release\chess.iobj
^D:\Chess\chess\chess\chess.vcxproj
D:\Chess\chess\Release\chess.ipdb
D:\Chess\chess\Release\chess.iobj
^D:\Chess\chess\chess\chess.vcxproj
D:\Chess\chess\Release\chess.ipdb
D:\Chess\chess\Release\chess.iobj
^D:\Chess\chess\chess\chess.vcxproj
D:\Chess\chess\Release\chess.ipdb
D:\Chess\chess\Release\chess.iobj
^D:\Chess\chess\chess\chess.vcxproj
D:\Chess\chess\Release\chess.ipdb
D:\Chess\chess\Release\chess.iobj
^D:\Chess\chess\chess\chess.vcxproj
D:\Chess\chess\Release\chess.ipdb
D:\Chess\chess\Release\chess.iobj
^D:\Chess\chess\chess\chess.vcxproj
D:\Chess\chess\Release\chess.ipdb
D:\Chess\chess\Release\chess.iobj
^D:\Chess\chess\chess\chess.vcxproj
D:\Chess\chess\Release\chess.ipdb
D:\Chess\chess\Release\chess.iobj
^D:\Chess\chess\chess\chess.vcxproj
D:\Chess\chess\Release\chess.ipdb
D:\Chess\chess\Release\chess.iobj
^D:\Chess\chess\chess\chess.vcxproj
D:\Chess\chess\Release\chess.ipdb
D:\Chess\chess\Release\chess.iobj
^D:\Chess\chess\chess\chess.vcxproj
D:\Chess\chess\Release\chess.ipdb
D:\Chess\chess\Release\chess.iobj
^D:\Chess\chess\chess\chess.vcxproj
D:\Chess\chess\Release\chess.ipdb
D:\Chess\chess\Release\chess.iobj
^D:\Chess\chess\chess\chess.vcxproj
D:\Chess\chess\Release\chess.ipdb
D:\Chess\chess\Release\chess.iobj
^D:\Chess\chess\chess\chess.vcxproj
D:\Chess\chess\Release\chess.ipdb
D:\Chess\chess\Release\chess.iobj
^D:\Chess\chess\chess\chess.vcxproj
D:\Chess\chess\Release\chess.ipdb
D:\Chess\chess\Release\chess.iobj
^D:\Chess\chess\chess\chess.vcxproj
D:\Chess\chess\Release\chess.ipdb
D:\Chess\chess\Release\chess.iobj
^D:\Chess\chess\chess\chess.vcxproj
D:\Chess\chess\Release\chess.ipdb
D:\Chess\chess\Release\chess.iobj
^D:\Chess\chess\chess\chess.vcxproj
D:\Chess\chess\Release\chess.ipdb
D:\Chess\chess\Release\chess.iobj
^D:\Chess\chess\chess\chess.vcxproj
D:\Chess\chess\Release\chess.ipdb
D:\Chess\chess\Release\chess.iobj
^D:\Chess\chess\chess\chess.vcxproj
D:\Chess\chess\Release\chess.ipdb
D:\Chess\chess\Release\chess.iobj
^D:\Chess\chess\chess\chess.vcxproj
D:\Chess\chess\Release\chess.ipdb
D:\Chess\chess\Release\chess.iobj
^D:\Chess\chess\chess\chess.vcxproj
D:\Chess\chess\Release\chess.ipdb
D:\Chess\chess\Release\chess.iobj
^D:\Chess\chess\chess\chess.vcxproj
D:\Chess\chess\Release\chess.ipdb
D:\Chess\chess\Release\chess.iobj
^D:\Chess\chess\chess\chess.vcxproj
D:\Chess\chess\Release\chess.ipdb
D:\Chess\chess\Release\chess.iobj
^D:\Chess\chess\chess\chess.vcxproj
D:\Chess\chess\Release\chess.ipdb
D:\Chess\chess\Release\chess.iobj
^D:\Chess\chess\chess\chess.vcxproj
D:\Chess\chess\Release\chess.ipdb
D:\Chess\chess\Release\chess.iobj
^D:\Chess\chess\chess\chess.vcxproj
D:\Chess\chess\Release\chess.ipdb
D:\Chess\chess\Release\chess.iobj
^D:\Chess\chess\chess\chess.vcxproj
D:\Chess\chess\Release\chess.ipdb
D:\Chess\chess\Release\chess.iobj
^D:\Chess\chess\chess\chess.vcxproj
D:\Chess\chess\Release\chess.ipdb
D:\Chess\chess\Release\chess.iobj
^D:\Chess\chess\chess\chess.vcxproj
D:\Chess\chess\Release\chess.ipdb
D:\Chess\chess\Release\chess.iobj
^D:\Chess\chess\chess\chess.vcxproj
D:\Chess\chess\Release\chess.ipdb
D:\Chess\chess\Release\chess.iobj
^D:\Chess\chess\chess\chess.vcxproj
D:\Chess\chess\Release\chess.ipdb
D:\Chess\chess\Release\chess.iobj
^D:\Chess\chess\chess\chess.vcxproj
D:\Chess\chess\Release\chess.ipdb
D:\Chess\chess\Release\chess.iobj
^D:\Chess\chess\chess\chess.vcxproj
D:\Chess\chess\Release\chess.ipdb
D:\Chess\chess\Release\chess.iobj
^D:\Chess\chess\chess\chess.vcxproj
D:\Chess\chess\Release\chess.ipdb
D:\Chess\chess\Release\chess.iobj
^D:\Chess\chess\chess\chess.vcxproj
D:\Chess\chess\Release\chess.ipdb
D:\Chess\chess\Release\chess.iobj
^D:\Chess\chess\chess\chess.vcxproj
D:\Chess\chess\Release\chess.ipdb
D:\Chess\chess\Release\chess.iobj
^D:\Chess\chess\chess\chess.vcxproj
D:\Chess\chess\Release\chess.ipdb
D:\Chess\chess\Release\chess.iobj
^D:\Chess\chess\chess\chess.vcxproj
D:\Chess\chess\Release\chess.ipdb
D:\Chess\chess\Release\chess.iobj
^D:\Chess\chess\chess\chess.vcxproj
D:\Chess\chess\Release\chess.ipdb
D:\Chess\chess\Release\chess.iobj
^D:\Chess\chess\chess\chess.vcxproj
D:\Chess\chess\Release\chess.ipdb
D:\Chess\chess\Release\chess.iobj
^D:\Chess\chess\chess\chess.vcxproj
D:\Chess\chess\Release\chess.ipdb
D:\Chess\chess\Release\chess.iobj
^D:\Chess\chess\chess\chess.vcxproj
D:\Chess\chess\Release\chess.ipdb
D:\Chess\chess\Release\chess.iobj
^D:\Chess\chess\chess\chess.vcxproj
D:\Chess\chess\Release\chess.ipdb
D:\Chess\chess\Release\chess.iobj
^D:\Chess\chess\chess\chess.vcxproj
D:\Chess\chess\Release\chess.ipdb
D:\Chess\chess\Release\chess.iobj
^D:\Chess\chess\chess\chess.vcxproj
D:\Chess\chess\Release\chess.ipdb
D:\Chess\chess\Release\chess.iobj
^D:\Chess\chess\chess\chess.vcxproj
D:\Chess\chess\Release\chess.ipdb
D:\Chess\chess\Release\chess.iobj
^D:\Chess\chess\chess\chess.vcxproj
D:\Chess\chess\Release\chess.ipdb
D:\Chess\chess\Release\chess.iobj
^D:\Chess\chess\chess\chess.vcxproj
D:\Chess\chess\Release\chess.ipdb
D:\Chess\chess\Release\chess.iobj
^D:\Chess\chess\chess\chess.vcxproj
D:\Chess\chess\Release\chess.ipdb
D:\Chess\chess\Release\chess.iobj
^D:\Chess\chess\chess\chess.vcxproj
D:\Chess\chess\Release\chess.ipdb
D:\Chess\chess\Release\chess.iobj
^D:\Chess\chess\chess\chess.vcxproj
D:\Chess\chess\Release\chess.ipdb
D:\Chess\chess\Release\chess.iobj
^D:\Chess\chess\chess\chess.vcxproj
D:\Chess\chess\Release\chess.ipdb
D:\Chess\chess\Release\chess.iobj
^D:\Chess\chess\chess\chess.vcxproj
D:\Chess\chess\Release\chess.ipdb
D:\Chess\chess\Release\chess.iobj
^D:\Chess\chess\chess\chess.vcxproj
D:\Chess\chess\Release\chess.ipdb
D:\Chess\chess\Release\chess.iobj
^D:\Chess\chess\chess\chess.vcxproj
D:\Chess\chess\Release\chess.ipdb
D:\Chess\chess\Release\chess.iobj
^D:\Chess\chess\chess\chess.vcxproj
D:\Chess\chess\Release\chess.ipdb
D:\Chess\chess\Release\chess.iobj
^D:\Chess\chess\chess\chess.vcxproj
D:\Chess\chess\Release\chess.ipdb
D:\Chess\chess\Release\chess.iobj
^D:\Chess\chess\chess\chess.vcxproj
D:\Chess\chess\Release\chess.ipdb
D:\Chess\chess\Release\chess.iobj
^D:\Chess\chess\chess\chess.vcxproj
D:\Chess\chess\Release\chess.ipdb
D:\Chess\chess\Release\chess.iobj
^D:\Chess\chess\chess\chess.vcxproj
D:\Chess\chess\Release\chess.ipdb
D:\Chess\chess\Release\chess.iobj
^D:\Chess\chess\chess\chess.vcxproj
D:\Chess\chess\Release\chess.ipdb
D:\Chess\chess\Release\chess.iobj
^D:\Chess\chess\chess\chess.vcxproj
D:\Chess\chess\Release\chess.ipdb
D:\Chess\chess\Release\chess.iobj
^D:\Chess\chess\chess\chess.vcxproj
D:\Chess\chess\Release\chess.ipdb
D:\Chess\chess\Release\chess.iobj
^D:\Chess\chess\chess\chess.vcxproj
D:\Chess\chess\Release\chess.ipdb
D:\Chess\chess\Release\chess.iobj
^D:\Chess\chess\chess\chess.vcxproj
D:\Chess\chess\Release\chess.ipdb
D:\Chess\chess\Release\chess.iobj
^D:\Chess\chess\chess\chess.vcxproj
D:\Chess\chess\Release\chess.ipdb
D:\Chess\chess\Release\chess.iobj
^D:\Chess\chess\chess\chess.vcxproj
D:\Chess\chess\Release\chess.ipdb
D:\Chess\chess\Release\chess.iobj
^D:\Chess\chess\chess\chess.vcxproj
D:\Chess\chess\Release\chess.ipdb
D:\Chess\chess\Release\chess.iobj
^D:\Chess\chess\chess\chess.vcxproj
D:\Chess\chess\Release\chess.ipdb
D:\Chess\chess\Release\chess.iobj
^D:\Chess\chess\chess\chess.vcxproj
D:\Chess\chess\Release\chess.ipdb
D:\Chess\chess\Release\chess.iobj
^D:\Chess\chess\chess\chess.vcxproj
D:\Chess\chess\Release\chess.ipdb
D:\Chess\chess\Release\chess.iobj
^D:\Chess\chess\chess\chess.vcxproj
D:\Chess\chess\Release\chess.ipdb
D:\Chess\chess\Release\chess.iobj
^D:\Chess\chess\chess\chess.vcxproj
D:\Chess\chess\Release\chess.ipdb
D:\Chess\chess\Release\chess.iobj
^D:\Chess\chess\chess\chess.vcxproj
D:\Chess\chess\Release\chess.ipdb
D:\Chess\chess\Release\chess.iobj
^D:\Chess\chess\chess\chess.vcxproj
D:\Chess\chess\Release\chess.ipdb
D:\Chess\chess\Release\chess.iobj
^D:\Chess\chess\chess\chess.vcxproj
D:\Chess\chess\Release\chess.ipdb
D:\Chess\chess\Release\chess.iobj
^D:\Chess\chess\chess\chess.vcxproj
D:\Chess\chess\Release\chess.ipdb
D:\Chess\chess\Release\chess.iobj
^D:\Chess\chess\chess\chess.vcxproj
D:\Chess\chess\Release\chess.ipdb
D:\Chess\chess\Release\chess.iobj
^D:\Chess\chess\chess\chess.vcxproj
D:\Chess\chess\Release\chess.ipdb
D:\Chess\chess\Release\chess.iobj
^D:\Chess\chess\chess\chess.vcxproj
D:\Chess\chess\Release\chess.ipdb
D:\Chess\chess\Release\chess.iobj
^D:\Chess\chess\chess\chess.vcxproj
D:\Chess\chess\Release\chess.ipdb
D:\Chess\chess\Release\chess.iobj
^D:\Chess\chess\chess\chess.vcxproj
D:\Chess\chess\Release\chess.ipdb
D:\Chess\chess\Release\chess.iobj
^D:\Chess\chess\chess\chess.vcxproj
D:\Chess\chess\Release\chess.ipdb
D:\Chess\chess\Release\chess.iobj
^D:\Chess\chess\chess\chess.vcxproj
D:\Chess\chess\Release\chess.ipdb
D:\Chess\chess\Release\chess.iobj
^D:\Chess\chess\chess\chess.vcxproj
D:\Chess\chess\Release\chess.ipdb
D:\Chess\chess\Release\chess.iobj
^D:\Chess\chess\chess\chess.vcxproj
D:\Chess\chess\Release\chess.ipdb
D:\Chess\chess\Release\chess.iobj
^D:\Chess\chess\chess\chess.vcxproj
D:\Chess\chess\Release\chess.ipdb
D:\Chess\chess\Release\chess.iobj
^D:\Chess\chess\chess\chess.vcxproj
D:\Chess\chess\Release\chess.ipdb
D:\Chess\chess\Release\chess.iobj
^D:\Chess\chess\chess\chess.vcxproj
D:\Chess\chess\Release\chess.ipdb
D:\Chess\chess\Release\chess.iobj
^D:\Chess\chess\chess\chess.vcxproj
D:\Chess\chess\Release\chess.ipdb
D:\Chess\chess\Release\chess.iobj
^D:\Chess\chess\chess\chess.vcxproj
D:\Chess\chess\Release\chess.ipdb
D:\Chess\chess\Release\chess.iobj
^D:\Chess\chess\chess\chess.vcxproj
D:\Chess\chess\Release\chess.ipdb
D:\Chess\chess\Release\chess.iobj
^D:\Chess\chess\chess\chess.vcxproj
D:\Chess\chess\Release\chess.ipdb
D:\Chess\chess\Release\chess.iobj
^D:\Chess\chess\chess\chess.vcxproj
D:\Chess\chess\Release\chess.ipdb
D:\Chess\chess\Release\chess.iobj
^D:\Chess\chess\chess\chess.vcxproj
D:\Chess\chess\Release\chess.ipdb
D:\Chess\chess\Release\chess.iobj
^D:\Chess\chess\chess\chess.vcxproj
D:\Chess\chess\Release\chess.ipdb
D:\Chess\chess\Release\chess.iobj
^D:\Chess\chess\chess\chess.vcxproj
D:\Chess\chess\Release\chess.ipdb
D:\Chess\chess\Release\chess.iobj
^D:\Chess\chess\chess\chess.vcxproj
D:\Chess\chess\Release\chess.ipdb
D:\Chess\chess\Release\chess.iobj
^D:\Chess\chess\chess\chess.vcxproj
D:\Chess\chess\Release\chess.ipdb
D:\Chess\chess\Release\chess.iobj
^D:\Chess\chess\chess\chess.vcxproj
D:\Chess\chess\Release\chess.ipdb
D:\Chess\chess\Release\chess.iobj
^D:\Chess\chess\chess\chess.vcxproj
D:\Chess\chess\Release\chess.ipdb
D:\Chess\chess\Release\chess.iobj
^D:\Chess\chess\chess\chess.vcxproj
D:\Chess\chess\Release\chess.ipdb
D:\Chess\chess\Release\chess.iobj
^D:\Chess\chess\chess\chess.vcxproj
D:\Chess\chess\Release\chess.ipdb
D:\Chess\chess\Release\chess.iobj
^D:\Chess\chess\chess\chess.vcxproj
D:\Chess\chess\Release\chess.ipdb
D:\Chess\chess\Release\chess.iobj
^D:\Chess\chess\chess\chess.vcxproj
D:\Chess\chess\Release\chess.ipdb
D:\Chess\chess\Release\chess.iobj
^D:\Chess\chess\chess\chess.vcxproj
D:\Chess\chess\Release\chess.ipdb
D:\Chess\chess\Release\chess.iobj
^D:\Chess\chess\chess\chess.vcxproj
D:\Chess\chess\Release\chess.ipdb
D:\Chess\chess\Release\chess.iobj
^D:\Chess\chess\chess\chess.vcxproj
D:\Chess\chess\Release\chess.ipdb
D:\Chess\chess\Release\chess.iobj
^D:\Chess\chess\chess\chess.vcxproj
D:\Chess\chess\Release\chess.ipdb
D:\Chess\chess\Release\chess.iobj
^D:\Chess\chess\chess\chess.vcxproj
D:\Chess\chess\Release\chess.ipdb
D:\Chess\chess\Release\chess.iobj
^D:\Chess\chess\chess\chess.vcxproj
D:\Chess\chess\Release\chess.ipdb
D:\Chess\chess\Release\chess.iobj
^D:\Chess\chess\chess\chess.vcxproj
D:\Chess\chess\Release\chess.ipdb
D:\Chess\chess\Release\chess.iobj
^D:\Chess\chess\chess\chess.vcxproj
D:\Chess\chess\Release\chess.ipdb
D:\Chess\chess\Release\chess.iobj
^D:\Chess\chess\chess\chess.vcxproj
D:\Chess\chess\Release\chess.ipdb
D:\Chess\chess\Release\chess.iobj
^D:\Chess\chess\chess\chess.vcxproj
D:\Chess\chess\Release\chess.ipdb
D:\Chess\chess\Release\chess.iobj
^D:\Chess\chess\chess\chess.vcxproj
D:\Chess\chess\Release\chess.ipdb
D:\Chess\chess\Release\chess.iobj
^D:\Chess\chess\chess\chess.vcxproj
D:\Chess\chess\Release\chess.ipdb
D:\Chess\chess\Release\chess.iobj
^D:\Chess\chess\chess\chess.vcxproj
D:\Chess\chess\Release\chess.ipdb
D:\Chess\chess\Release\chess.iobj
^D:\Chess\chess\chess\chess.vcxproj
D:\Chess\chess\Release\chess.ipdb
D:\Chess\chess\Release\chess.iobj
^D:\Chess\chess\chess\chess.vcxproj
D:\Chess\chess\Release\chess.ipdb
D:\Chess\chess\Release\chess.iobj
^D:\Chess\chess\chess\chess.vcxproj
D:\Chess\chess\Release\chess.ipdb
D:\Chess\chess\Release\chess.iobj
^D:\Chess\chess\chess\chess.vcxproj
D:\Chess\chess\Release\chess.ipdb
D:\Chess\chess\Release\chess.iobj
^D:\Chess\chess\chess\chess.vcxproj
D:\Chess\chess\Release\chess.ipdb
D:\Chess\chess\Release\chess.iobj
^D:\Chess\chess\chess\chess.vcxproj
D:\Chess\chess\Release\chess.ipdb
D:\Chess\chess\Release\chess.iobj
^D:\Chess\chess\chess\chess.vcxproj
D:\Chess\chess\Release\chess.ipdb
D:\Chess\chess\Release\chess.iobj
^D:\Chess\chess\chess\chess.vcxproj
D:\Chess\chess\Release\chess.ipdb
D:\Chess\chess\Release\chess.iobj
^D:\Chess\chess\chess\chess.vcxproj
D:\Chess\chess\Release\chess.ipdb
D:\Chess\chess\Release\chess.iobj
^D:\Chess\chess\chess\chess.vcxproj
D:\Chess\chess\Release\chess.ipdb
D:\Chess\chess\Release\chess.iobj
^D:\Chess\chess\chess\chess.vcxproj
D:\Chess\chess\Release\chess.ipdb
D:\Chess\chess\Release\chess.iobj
^D:\Chess\chess\chess\chess.vcxproj
D:\Chess\chess\Release\chess.ipdb
D:\Chess\chess\Release\chess.iobj
^D:\Chess\chess\chess\chess.vcxproj
D:\Chess\chess\Release\chess.ipdb
D:\Chess\chess\Release\chess.iobj
^D:\Chess\chess\chess\chess.vcxproj
D:\Chess\chess\Release\chess.ipdb
D:\Chess\chess\Release\chess.iobj
^D:\Chess\chess\chess\chess.vcxproj
D:\Chess\chess\Release\chess.ipdb
D:\Chess\chess\Release\chess.iobj
^D:\Chess\chess\chess\chess.vcxproj
D:\Chess\chess\Release\chess.ipdb
D:\Chess\chess\Release\chess.iobj
^D:\Chess\chess\chess\chess.vcxproj
D:\Chess\chess\Release\chess.ipdb
D:\Chess\chess\Release\chess.iobj
^D:\Chess\chess\chess\chess.vcxproj
D:\Chess\chess\Release\chess.ipdb
D:\Chess\chess\Release\chess.iobj
^D:\Chess\chess\chess\chess.vcxproj
D:\Chess\chess\Release\chess.ipdb
D:\Chess\chess\Release\chess.iobj
^D:\Chess\chess\chess\chess.vcxproj
D:\Chess\chess\Release\chess.ipdb
D:\Chess\chess\Release\chess.iobj
^D:\Chess\chess\chess\chess.vcxproj
D:\Chess\chess\Release\chess.ipdb
D:\Chess\chess\Release\chess.iobj
^D:\Chess\chess\chess\chess.vcxproj
D:\Chess\chess\Release\chess.ipdb
D:\Chess\chess\Release\chess.iobj
^D:\Chess\chess\chess\chess.vcxproj
D:\Chess\chess\Release\chess.ipdb
D:\Chess\chess\Release\chess.iobj
^D:\Chess\chess\chess\chess.vcxproj
D:\Chess\chess\Release\chess.ipdb
D:\Chess\chess\Release\chess.iobj
^D:\Chess\chess\chess\chess.vcxproj
D:\Chess\chess\Release\chess.ipdb
D:\Chess\chess\Release\chess.iobj
^D:\Chess\chess\chess\chess.vcxproj
D:\Chess\chess\Release\chess.ipdb
D:\Chess\chess\Release\chess.iobj
^D:\Chess\chess\chess\chess.vcxproj
D:\Chess\chess\Release\chess.ipdb
D:\Chess\chess\Release\chess.iobj
^D:\Chess\chess\chess\chess.vcxproj
D:\Chess\chess\Release\chess.ipdb
D:\Chess\chess\Release\chess.iobj
^D:\Chess\chess\chess\chess.vcxproj
D:\Chess\chess\Release\chess.ipdb
D:\Chess\chess\Release\chess.iobj
